Code/LISTA06-CODES/questao5/upcounter_sim/simulation/qsim/upcounter.msim.vcd
$comment
	File created using the following command:
		vcd file upcounter.msim.vcd -direction
$end
$date
	Mon Mar 22 20:00:01 2021
$end
$version
	ModelSim Version 2020.1
$end
$timescale
	1ps
$end

$scope module upcounter_vlg_vec_tst $end
$var reg 1 ! clk $end
$var reg 1 " rst $end
$var wire 1 # o [0] $end
$var wire 1 $ o [1] $end
$var wire 1 % o [2] $end
$var wire 1 & o [3] $end

$scope module i1 $end
$var wire 1 ' gnd $end
$var wire 1 ( vcc $end
$var wire 1 ) unknown $end
$var tri1 1 * devclrn $end
$var tri1 1 + devpor $end
$var tri1 1 , devoe $end
$var wire 1 - o[3]~output_o $end
$var wire 1 . o[2]~output_o $end
$var wire 1 / o[1]~output_o $end
$var wire 1 0 o[0]~output_o $end
$var wire 1 1 clk~input_o $end
$var wire 1 2 count[3]~3_combout $end
$var wire 1 3 rst~input_o $end
$var wire 1 4 count[2]~0_combout $end
$var wire 1 5 count[1]~1_combout $end
$var wire 1 6 count[0]~2_combout $end
$var wire 1 7 count [0] $end
$var wire 1 8 count [1] $end
$var wire 1 9 count [2] $end
$var wire 1 : count [3] $end
$upscope $end
$upscope $end
$enddefinitions $end
#0
$dumpvars
0!
1"
0&
0%
0$
0#
0'
1(
x)
1*
1+
1,
0-
0.
0/
00
01
12
13
04
05
06
0:
09
08
07
$end
#75000
1!
11
#150000
0!
01
#225000
1!
11
#240000
0"
03
#300000
0!
01
#375000
1!
11
1:
1-
1&
14
02
#450000
0!
01
#490000
1"
13
0:
0-
0&
04
12
#525000
1!
11
#600000
0!
01
#660000
0"
03
#675000
1!
11
1:
1-
1&
14
02
#750000
0!
01
#825000
1!
11
19
0:
0-
1.
1%
0&
12
#900000
0!
01
#975000
1!
11
1:
1-
1&
15
04
02
