Code/LISTA06-CODES/questao4/extender8to16_sim/simulation/qsim/extender8to16.msim.vcd
$comment
	File created using the following command:
		vcd file extender8to16.msim.vcd -direction
$end
$date
	Mon Mar 22 20:33:19 2021
$end
$version
	ModelSim Version 2020.1
$end
$timescale
	1ps
$end

$scope module extender8to16_vlg_vec_tst $end
$var reg 8 ! in_port [7:0] $end
$var wire 1 " out_port [15] $end
$var wire 1 # out_port [14] $end
$var wire 1 $ out_port [13] $end
$var wire 1 % out_port [12] $end
$var wire 1 & out_port [11] $end
$var wire 1 ' out_port [10] $end
$var wire 1 ( out_port [9] $end
$var wire 1 ) out_port [8] $end
$var wire 1 * out_port [7] $end
$var wire 1 + out_port [6] $end
$var wire 1 , out_port [5] $end
$var wire 1 - out_port [4] $end
$var wire 1 . out_port [3] $end
$var wire 1 / out_port [2] $end
$var wire 1 0 out_port [1] $end
$var wire 1 1 out_port [0] $end

$scope module i1 $end
$var wire 1 2 gnd $end
$var wire 1 3 vcc $end
$var wire 1 4 unknown $end
$var tri1 1 5 devclrn $end
$var tri1 1 6 devpor $end
$var tri1 1 7 devoe $end
$var wire 1 8 out_port[0]~output_o $end
$var wire 1 9 out_port[1]~output_o $end
$var wire 1 : out_port[2]~output_o $end
$var wire 1 ; out_port[3]~output_o $end
$var wire 1 < out_port[4]~output_o $end
$var wire 1 = out_port[5]~output_o $end
$var wire 1 > out_port[6]~output_o $end
$var wire 1 ? out_port[7]~output_o $end
$var wire 1 @ out_port[8]~output_o $end
$var wire 1 A out_port[9]~output_o $end
$var wire 1 B out_port[10]~output_o $end
$var wire 1 C out_port[11]~output_o $end
$var wire 1 D out_port[12]~output_o $end
$var wire 1 E out_port[13]~output_o $end
$var wire 1 F out_port[14]~output_o $end
$var wire 1 G out_port[15]~output_o $end
$var wire 1 H in_port[0]~input_o $end
$var wire 1 I in_port[1]~input_o $end
$var wire 1 J in_port[2]~input_o $end
$var wire 1 K in_port[3]~input_o $end
$var wire 1 L in_port[4]~input_o $end
$var wire 1 M in_port[5]~input_o $end
$var wire 1 N in_port[6]~input_o $end
$var wire 1 O in_port[7]~input_o $end
$upscope $end
$upscope $end
$enddefinitions $end
#0
$dumpvars
b0 !
01
00
0/
0.
0-
0,
0+
0*
0)
0(
0'
0&
0%
0$
0#
0"
02
13
x4
15
16
17
08
09
0:
0;
0<
0=
0>
0?
0@
0A
0B
0C
0D
0E
0F
0G
0H
0I
0J
0K
0L
0M
0N
0O
$end
#50000
b1 !
1H
18
11
#100000
b11 !
b10 !
0H
1I
19
08
01
10
#150000
b11 !
1H
18
11
#200000
b111 !
b101 !
b100 !
0H
0I
1J
1:
09
08
01
00
1/
#250000
b101 !
1H
18
11
#300000
b111 !
b110 !
0H
1I
19
08
01
10
#350000
b111 !
1H
18
11
#400000
b1111 !
b1011 !
b1001 !
b1000 !
0H
0I
0J
1K
1;
0:
09
08
01
00
0/
1.
#450000
b1001 !
1H
18
11
#500000
b1011 !
b1010 !
0H
1I
19
08
01
10
#550000
b1011 !
1H
18
11
#600000
b1111 !
b1101 !
b1100 !
0H
0I
1J
1:
09
08
01
00
1/
#650000
b1101 !
1H
18
11
#700000
b1111 !
b1110 !
0H
1I
19
08
01
10
#750000
b1111 !
1H
18
11
#800000
b11111 !
b10111 !
b10011 !
b10001 !
b10000 !
0H
0I
0J
0K
1L
1<
0;
0:
09
08
01
00
0/
0.
1-
#850000
b10001 !
1H
18
11
#900000
b10011 !
b10010 !
0H
1I
19
08
01
10
#950000
b10011 !
1H
18
11
