Code/LISTA07-CODES/questao1/simulation/qsim/portaXor.msim.vcd
$comment
	File created using the following command:
		vcd file portaXor.msim.vcd -direction
$end
$date
	Fri Mar 26 15:26:30 2021
$end
$version
	ModelSim Version 2020.1
$end
$timescale
	1ps
$end

$scope module portaxor_vhd_vec_tst $end
$var wire 1 ! in_port_A $end
$var wire 1 " in_port_B $end
$var wire 1 # out_port $end

$scope module i1 $end
$var wire 1 $ gnd $end
$var wire 1 % vcc $end
$var wire 1 & unknown $end
$var wire 1 ' devoe $end
$var wire 1 ( devclrn $end
$var wire 1 ) devpor $end
$var wire 1 * ww_devoe $end
$var wire 1 + ww_devclrn $end
$var wire 1 , ww_devpor $end
$var wire 1 - ww_in_port_A $end
$var wire 1 . ww_in_port_B $end
$var wire 1 / ww_out_port $end
$var wire 1 0 \out_port~output_o\ $end
$var wire 1 1 \in_port_A~input_o\ $end
$var wire 1 2 \in_port_B~input_o\ $end
$var wire 1 3 \p_o|out_port~0_combout\ $end
$var wire 1 4 \ALT_INV_in_port_A~input_o\ $end
$var wire 1 5 \ALT_INV_in_port_B~input_o\ $end
$upscope $end
$upscope $end
$enddefinitions $end
#0
$dumpvars
0!
0"
0#
0$
1%
x&
1'
1(
1)
1*
1+
1,
0-
0.
0/
00
01
02
03
14
15
$end
#50000
1!
1-
11
04
13
10
1/
1#
#100000
0!
1"
0-
1.
12
01
14
05
#150000
1!
1-
11
04
03
00
0/
0#
#200000
0!
0"
0-
0.
02
01
14
15
#250000
1!
1-
11
04
13
10
1/
1#
#300000
0!
1"
0-
1.
12
01
14
05
#350000
1!
1-
11
04
03
00
0/
0#
#400000
0!
0"
0-
0.
02
01
14
15
#450000
1!
1-
11
04
13
10
1/
1#
#500000
0!
1"
0-
1.
12
01
14
05
#550000
1!
1-
11
04
03
00
0/
0#
#600000
0!
0"
0-
0.
02
01
14
15
#650000
1!
1-
11
04
13
10
1/
1#
#700000
0!
1"
0-
1.
12
01
14
05
#750000
1!
1-
11
04
03
00
0/
0#
#800000
0!
0"
0-
0.
02
01
14
15
#850000
1!
1-
11
04
13
10
1/
1#
#900000
0!
1"
0-
1.
12
01
14
05
#950000
1!
1-
11
04
03
00
0/
0#
